{
  "fields": {
    "id": {
      "visible": false
    },
    "type": {
      "name": "Тип события",
      "type": "string"
    },
    "num": {
      "name": "Номер события",
      "type": "string"
    },
    "date": {
      "name": "Дата",
      "type": "date"
    },
    "geo": {
      "name": "Географическая привязка",
      "type": "string"
    },
    "name": {
      "name": "Название компании",
      "type": "string"
    },
    "region": {
      "name": "Регион",
      "type": "string"
    },
    "descript": {
      "name": "Описание",
      "type": "text",
      "widget": "showDetailLink",
      "widgetOptions": {
        "linkTemplate": "https://barents-kara-xprojects.nextgis.com/resource/176/feature/{id}"
      }
    }
  },
  "display": {
    "fields": ["type", "num", "date", "geo", "name", "descript"]
  },
  "filterFields": ["type", "name", "geo", "region"]
}
